{
	"info": {
		"_postman_id": "a98cee87-68fa-4640-9ae0-ea1206234d09",
		"name": "Retargetly",
		"schema": "https://schema.getpostman.com/json/collection/v2.1.0/collection.json"
	},
	"item": [
		{
			"name": "Login",
			"request": {
				"method": "POST",
				"header": [
					{
						"key": "Content-Type",
						"name": "Content-Type",
						"value": "application/json",
						"type": "text"
					}
				],
				"body": {
					"mode": "raw",
					"raw": "{\n\t\"user\": \"login\",\n\t\"password\": \"retarget\"\n}",
					"options": {
						"raw": {
							"language": "json"
						}
					}
				},
				"url": {
					"raw": "http://localhost:3000/login",
					"protocol": "http",
					"host": [
						"localhost"
					],
					"port": "3000",
					"path": [
						"login"
					]
				}
			},
			"response": []
		},
		{
			"name": "Obtener datos del modelo",
			"request": {
				"method": "GET",
				"header": [
					{
						"key": "Authorization",
						"value": "eyJhbGciOiJIUzI1NiIsInR5cCI6IkpXVCJ9.eyJ1c2VyIjoiZjI3MDA1ZWMtZmI2OS0xMWU5LWJmOWUtNWIzYWQyODczNDA0IiwiaWF0IjoxNTcyNDc3MjIyLCJleHAiOjE1NzI1NjM2MjIsImF1ZCI6ImYyNzAwNWVjLWZiNjktMTFlOS1iZjllLTViM2FkMjg3MzQwNCIsImlzcyI6IkRTIiwianRpIjoiZjI3MDA1ZWMtZmI2OS0xMWU5LWJmOWUtNWIzYWQyODczNDA0In0.iL6ggAY346n-SQTg6K7im5Upilh_jlebTcUjC01Np3g",
						"type": "text"
					}
				],
				"url": {
					"raw": "http://localhost:3000/data?limit=10&sort=asc&sortField=platformid&fields[]=name&fields[]=platformid",
					"protocol": "http",
					"host": [
						"localhost"
					],
					"port": "3000",
					"path": [
						"data"
					],
					"query": [
						{
							"key": "limit",
							"value": "10"
						},
						{
							"key": "sort",
							"value": "asc"
						},
						{
							"key": "sortField",
							"value": "platformid"
						},
						{
							"key": "fields[]",
							"value": "name"
						},
						{
							"key": "fields[]",
							"value": "platformid"
						}
					]
				}
			},
			"response": []
		},
		{
			"name": "Listar Archivos",
			"request": {
				"method": "GET",
				"header": [
					{
						"key": "Authorization",
						"value": "eyJhbGciOiJIUzI1NiIsInR5cCI6IkpXVCJ9.eyJ1c2VyIjoiZjI3MDA1ZWMtZmI2OS0xMWU5LWJmOWUtNWIzYWQyODczNDA0IiwiaWF0IjoxNTcyNDc3MjIyLCJleHAiOjE1NzI1NjM2MjIsImF1ZCI6ImYyNzAwNWVjLWZiNjktMTFlOS1iZjllLTViM2FkMjg3MzQwNCIsImlzcyI6IkRTIiwianRpIjoiZjI3MDA1ZWMtZmI2OS0xMWU5LWJmOWUtNWIzYWQyODczNDA0In0.iL6ggAY346n-SQTg6K7im5Upilh_jlebTcUjC01Np3g",
						"type": "text"
					}
				],
				"url": {
					"raw": "http://localhost:3000/files/list?humanreadable=true",
					"protocol": "http",
					"host": [
						"localhost"
					],
					"port": "3000",
					"path": [
						"files",
						"list"
					],
					"query": [
						{
							"key": "humanreadable",
							"value": "true"
						}
					]
				}
			},
			"response": []
		},
		{
			"name": "Obtener Metrics",
			"request": {
				"method": "GET",
				"header": [
					{
						"key": "Authorization",
						"value": "eyJhbGciOiJIUzI1NiIsInR5cCI6IkpXVCJ9.eyJ1c2VyIjoiZjI3MDA1ZWMtZmI2OS0xMWU5LWJmOWUtNWIzYWQyODczNDA0IiwiaWF0IjoxNTcyNDc3MjIyLCJleHAiOjE1NzI1NjM2MjIsImF1ZCI6ImYyNzAwNWVjLWZiNjktMTFlOS1iZjllLTViM2FkMjg3MzQwNCIsImlzcyI6IkRTIiwianRpIjoiZjI3MDA1ZWMtZmI2OS0xMWU5LWJmOWUtNWIzYWQyODczNDA0In0.iL6ggAY346n-SQTg6K7im5Upilh_jlebTcUjC01Np3g",
						"type": "text"
					}
				],
				"url": {
					"raw": "http://localhost:3000/files/metrics?filename=file2.tsv&delete=false",
					"protocol": "http",
					"host": [
						"localhost"
					],
					"port": "3000",
					"path": [
						"files",
						"metrics"
					],
					"query": [
						{
							"key": "filename",
							"value": "file2.tsv"
						},
						{
							"key": "delete",
							"value": "false"
						}
					]
				}
			},
			"response": []
		}
	],
	"protocolProfileBehavior": {}
}